EESchema Schematic File Version 2
LIBS:conn
LIBS:breakout-cache
EELAYER 25 0
EELAYER END
$Descr A4 11693 8268
encoding utf-8
Sheet 3 3
Title "Box0"
Date "03 April 2016"
Rev "0.3"
Comp "Mad Resistor"
Comment1 ""
Comment2 ""
Comment3 ""
Comment4 ""
$EndDescr
Text HLabel 2250 2100 2    60   Output ~ 0
AIN0.[0..3]
Entry Wire Line
	2100 2250 2200 2350
Entry Wire Line
	2100 2350 2200 2450
Entry Wire Line
	2100 2450 2200 2550
Entry Wire Line
	2100 2550 2200 2650
Text Label 2550 2350 2    60   ~ 0
AIN0.0
Text Label 2550 2450 2    60   ~ 0
AIN0.1
Text Label 2550 2550 2    60   ~ 0
AIN0.2
Text Label 2550 2650 2    60   ~ 0
AIN0.3
Text HLabel 2650 3200 0    60   Input ~ 0
AOUT0.[0..1]
Entry Wire Line
	2800 3350 2700 3450
Entry Wire Line
	2800 3450 2700 3550
Text Label 2250 3450 0    60   ~ 0
AOUT0.0
Text Label 2250 3550 0    60   ~ 0
AOUT0.1
Text Label 3050 3150 0    60   ~ 0
AOUT0.0
Text Label 4250 3150 2    60   ~ 0
AOUT0.1
$Comp
L C C2
U 1 1 55ECDAF7
P 9050 2450
F 0 "C2" H 9075 2550 50  0000 L CNN
F 1 "100nF" H 9075 2350 50  0000 L CNN
F 2 "Capacitors_SMD:C_0603_HandSoldering" H 9088 2300 30  0001 C CNN
F 3 "" H 9050 2450 60  0000 C CNN
	1    9050 2450
	1    0    0    -1  
$EndComp
$Comp
L GND #PWR011
U 1 1 55ECDB50
P 9050 2600
F 0 "#PWR011" H 9050 2350 50  0001 C CNN
F 1 "GND" H 9050 2450 50  0000 C CNN
F 2 "" H 9050 2600 60  0000 C CNN
F 3 "" H 9050 2600 60  0000 C CNN
	1    9050 2600
	1    0    0    -1  
$EndComp
$Comp
L C C3
U 1 1 55ECDC11
P 9400 2450
F 0 "C3" H 9425 2550 50  0000 L CNN
F 1 "100nF" H 9425 2350 50  0000 L CNN
F 2 "Capacitors_SMD:C_0603_HandSoldering" H 9438 2300 30  0001 C CNN
F 3 "" H 9400 2450 60  0000 C CNN
	1    9400 2450
	1    0    0    -1  
$EndComp
Text GLabel 9550 2150 2    60   Input ~ 0
ANALOG_POS
Text GLabel 9550 2300 2    60   Input ~ 0
ANALOG_NEG
$Comp
L C C1
U 1 1 55F7FBFE
P 3650 2400
F 0 "C1" H 3650 2500 40  0000 L CNN
F 1 "100nF" H 3656 2315 40  0000 L CNN
F 2 "Capacitors_SMD:C_0603_HandSoldering" H 3688 2250 30  0001 C CNN
F 3 "~" H 3650 2400 60  0000 C CNN
	1    3650 2400
	1    0    0    -1  
$EndComp
Text GLabel 3550 2100 0    60   Input ~ 0
VREF_EXT
$Comp
L GND #PWR012
U 1 1 5613FDE2
P 3650 2550
F 0 "#PWR012" H 3650 2300 50  0001 C CNN
F 1 "GND" H 3650 2400 50  0000 C CNN
F 2 "" H 3650 2550 60  0000 C CNN
F 3 "" H 3650 2550 60  0000 C CNN
	1    3650 2550
	1    0    0    -1  
$EndComp
$Comp
L GND #PWR013
U 1 1 5614043B
P 9400 2600
F 0 "#PWR013" H 9400 2350 50  0001 C CNN
F 1 "GND" H 9400 2450 50  0000 C CNN
F 2 "" H 9400 2600 60  0000 C CNN
F 3 "" H 9400 2600 60  0000 C CNN
	1    9400 2600
	1    0    0    -1  
$EndComp
$Comp
L GND #PWR014
U 1 1 56140749
P 4050 3550
F 0 "#PWR014" H 4050 3300 50  0001 C CNN
F 1 "GND" H 4050 3400 50  0000 C CNN
F 2 "" H 4050 3550 60  0000 C CNN
F 3 "" H 4050 3550 60  0000 C CNN
	1    4050 3550
	1    0    0    -1  
$EndComp
$Comp
L GND #PWR015
U 1 1 561407EA
P 3150 3550
F 0 "#PWR015" H 3150 3300 50  0001 C CNN
F 1 "GND" H 3150 3400 50  0000 C CNN
F 2 "" H 3150 3550 60  0000 C CNN
F 3 "" H 3150 3550 60  0000 C CNN
	1    3150 3550
	1    0    0    -1  
$EndComp
Text HLabel 5000 3400 0    60   Input ~ 0
UART0.TX
Text HLabel 5000 3500 0    60   Output ~ 0
UART0.RX
Entry Wire Line
	2150 4950 2250 5050
Entry Wire Line
	2150 4850 2250 4950
Entry Wire Line
	2150 4750 2250 4850
Entry Wire Line
	2150 4650 2250 4750
Entry Wire Line
	2150 4550 2250 4650
Entry Wire Line
	2150 4450 2250 4550
Entry Wire Line
	2150 4350 2250 4450
Entry Wire Line
	2150 4250 2250 4350
Text HLabel 2500 4100 2    60   BiDi ~ 0
DIO0.[0..7]
Text Label 2250 5050 0    60   ~ 0
DIO0.7
Text Label 2250 4950 0    60   ~ 0
DIO0.6
Text Label 2250 4850 0    60   ~ 0
DIO0.5
Text Label 2250 4750 0    60   ~ 0
DIO0.4
Text Label 2250 4650 0    60   ~ 0
DIO0.3
Text Label 2250 4550 0    60   ~ 0
DIO0.2
Text Label 2250 4450 0    60   ~ 0
DIO0.1
Text Label 2250 4350 0    60   ~ 0
DIO0.0
Text HLabel 9550 4300 2    60   Output ~ 0
SPI0.MISO
Text HLabel 9550 4400 2    60   BiDi ~ 0
SPI0.MOSI
Text HLabel 5000 3200 0    60   Input ~ 0
PWM0.0
Text HLabel 6200 4150 0    60   Input ~ 0
SPI0.SS[0..3]
Entry Wire Line
	6150 4700 6250 4600
Entry Wire Line
	6150 4600 6250 4500
Entry Wire Line
	6150 4500 6250 4400
Entry Wire Line
	6150 4400 6250 4300
Text Label 5750 4400 0    60   ~ 0
SPI0.SS0
Text Label 5750 4500 0    60   ~ 0
SPI0.SS1
Text Label 5750 4600 0    60   ~ 0
SPI0.SS2
Text Label 5750 4700 0    60   ~ 0
SPI0.SS3
Text HLabel 9550 4200 2    60   Input ~ 0
SPI0.SCLK
Text Label 6550 4100 0    60   ~ 0
SPI0.SS0
Text GLabel 7050 4500 0    60   Input ~ 0
DIGITAL_EXT
Text Label 8050 4100 2    60   ~ 0
SPI0.SS1
Text GLabel 7550 4500 2    60   Input ~ 0
DIGITAL_EXT
Text Label 8550 4100 0    60   ~ 0
SPI0.SS2
Text GLabel 9050 4500 0    60   Input ~ 0
DIGITAL_EXT
Text Label 10050 4100 2    60   ~ 0
SPI0.SS3
Text GLabel 9550 4500 2    60   Input ~ 0
DIGITAL_EXT
Text HLabel 5000 3300 0    60   Input ~ 0
PWM1.0
$Comp
L CONN_02X08 P12
U 1 1 56200F23
P 2850 4700
F 0 "P12" H 2850 5150 50  0000 C CNN
F 1 "DIO0" V 2850 4700 50  0000 C CNN
F 2 "Pin_Headers:Pin_Header_Straight_2x08" H 2850 3500 60  0001 C CNN
F 3 "" H 2850 3500 60  0000 C CNN
	1    2850 4700
	-1   0    0    -1  
$EndComp
Text GLabel 9450 3250 2    60   Input ~ 0
DIGITAL_EXT
Text HLabel 9450 3150 2    60   BiDi ~ 0
I2C0.SDA
Text HLabel 9450 3450 2    60   Input ~ 0
I2C0.SCL
Text GLabel 8950 3250 0    60   Input ~ 0
DIGITAL_EXT
Text HLabel 8950 3150 0    60   BiDi ~ 0
I2C0.SDA
Text HLabel 8950 3450 0    60   Input ~ 0
I2C0.SCL
Text GLabel 7350 3250 2    60   Input ~ 0
DIGITAL_EXT
Text HLabel 7350 3150 2    60   BiDi ~ 0
I2C0.SDA
Text HLabel 7350 3450 2    60   Input ~ 0
I2C0.SCL
Text GLabel 6850 3250 0    60   Input ~ 0
DIGITAL_EXT
Text HLabel 6850 3150 0    60   BiDi ~ 0
I2C0.SDA
Text HLabel 6850 3450 0    60   Input ~ 0
I2C0.SCL
Text HLabel 7050 4300 0    60   Output ~ 0
SPI0.MISO
Text HLabel 7050 4400 0    60   BiDi ~ 0
SPI0.MOSI
Text HLabel 7050 4200 0    60   Input ~ 0
SPI0.SCLK
Text HLabel 7550 4300 2    60   Output ~ 0
SPI0.MISO
Text HLabel 7550 4400 2    60   BiDi ~ 0
SPI0.MOSI
Text HLabel 7550 4200 2    60   Input ~ 0
SPI0.SCLK
Text HLabel 9050 4300 0    60   Output ~ 0
SPI0.MISO
Text HLabel 9050 4400 0    60   BiDi ~ 0
SPI0.MOSI
Text HLabel 9050 4200 0    60   Input ~ 0
SPI0.SCLK
$Comp
L GND #PWR016
U 1 1 56200FA0
P 6250 3550
F 0 "#PWR016" H 6250 3300 50  0001 C CNN
F 1 "GND" H 6250 3400 50  0000 C CNN
F 2 "" H 6250 3550 60  0000 C CNN
F 3 "" H 6250 3550 60  0000 C CNN
	1    6250 3550
	1    0    0    -1  
$EndComp
$Comp
L GND #PWR017
U 1 1 56200FA6
P 7950 3550
F 0 "#PWR017" H 7950 3300 50  0001 C CNN
F 1 "GND" H 7950 3400 50  0000 C CNN
F 2 "" H 7950 3550 60  0000 C CNN
F 3 "" H 7950 3550 60  0000 C CNN
	1    7950 3550
	-1   0    0    -1  
$EndComp
$Comp
L GND #PWR018
U 1 1 56200FAC
P 8350 3550
F 0 "#PWR018" H 8350 3300 50  0001 C CNN
F 1 "GND" H 8350 3400 50  0000 C CNN
F 2 "" H 8350 3550 60  0000 C CNN
F 3 "" H 8350 3550 60  0000 C CNN
	1    8350 3550
	1    0    0    -1  
$EndComp
$Comp
L GND #PWR019
U 1 1 56200FB2
P 10050 3600
F 0 "#PWR019" H 10050 3350 50  0001 C CNN
F 1 "GND" H 10050 3450 50  0000 C CNN
F 2 "" H 10050 3600 60  0000 C CNN
F 3 "" H 10050 3600 60  0000 C CNN
	1    10050 3600
	-1   0    0    -1  
$EndComp
$Comp
L GND #PWR020
U 1 1 56200FB8
P 9800 4600
F 0 "#PWR020" H 9800 4350 50  0001 C CNN
F 1 "GND" H 9800 4450 50  0000 C CNN
F 2 "" H 9800 4600 60  0000 C CNN
F 3 "" H 9800 4600 60  0000 C CNN
	1    9800 4600
	-1   0    0    -1  
$EndComp
$Comp
L GND #PWR021
U 1 1 56200FBE
P 8800 4600
F 0 "#PWR021" H 8800 4350 50  0001 C CNN
F 1 "GND" H 8800 4450 50  0000 C CNN
F 2 "" H 8800 4600 60  0000 C CNN
F 3 "" H 8800 4600 60  0000 C CNN
	1    8800 4600
	1    0    0    -1  
$EndComp
$Comp
L GND #PWR022
U 1 1 56200FC4
P 7800 4600
F 0 "#PWR022" H 7800 4350 50  0001 C CNN
F 1 "GND" H 7800 4450 50  0000 C CNN
F 2 "" H 7800 4600 60  0000 C CNN
F 3 "" H 7800 4600 60  0000 C CNN
	1    7800 4600
	-1   0    0    -1  
$EndComp
$Comp
L GND #PWR023
U 1 1 56200FCA
P 6800 4600
F 0 "#PWR023" H 6800 4350 50  0001 C CNN
F 1 "GND" H 6800 4450 50  0000 C CNN
F 2 "" H 6800 4600 60  0000 C CNN
F 3 "" H 6800 4600 60  0000 C CNN
	1    6800 4600
	1    0    0    -1  
$EndComp
$Comp
L GND #PWR024
U 1 1 56200FD0
P 3250 5200
F 0 "#PWR024" H 3250 4950 50  0001 C CNN
F 1 "GND" H 3250 5050 50  0000 C CNN
F 2 "" H 3250 5200 60  0000 C CNN
F 3 "" H 3250 5200 60  0000 C CNN
	1    3250 5200
	1    0    0    -1  
$EndComp
$Comp
L GND #PWR025
U 1 1 56206B8F
P 5750 3550
F 0 "#PWR025" H 5750 3300 50  0001 C CNN
F 1 "GND" H 5750 3400 50  0000 C CNN
F 2 "" H 5750 3550 60  0000 C CNN
F 3 "" H 5750 3550 60  0000 C CNN
	1    5750 3550
	1    0    0    -1  
$EndComp
Text GLabel 4850 2400 0    60   Input ~ 0
ANALOG_NEG
Text GLabel 4850 2300 0    60   Input ~ 0
ANALOG_POS
Text Label 4250 2000 0    60   ~ 0
AIN0.0
$Comp
L GND #PWR026
U 1 1 56203A35
P 4150 2550
F 0 "#PWR026" H 4150 2300 50  0001 C CNN
F 1 "GND" H 4150 2400 50  0000 C CNN
F 2 "" H 4150 2550 60  0000 C CNN
F 3 "" H 4150 2550 60  0000 C CNN
	1    4150 2550
	1    0    0    -1  
$EndComp
Wire Notes Line
	10250 2950 6050 2950
Wire Notes Line
	6050 3800 10250 3800
Wire Notes Line
	5500 3950 5500 4850
Wire Bus Line
	6200 4150 6250 4150
Wire Notes Line
	6050 2950 6050 3800
Wire Notes Line
	10250 3800 10250 2950
Wire Wire Line
	6250 3350 6250 3550
Wire Wire Line
	6850 3350 6250 3350
Wire Wire Line
	9550 4100 10050 4100
Wire Wire Line
	9050 4100 8550 4100
Wire Wire Line
	7550 4100 8050 4100
Wire Wire Line
	7050 4100 6550 4100
Wire Wire Line
	10050 3350 10050 3600
Wire Wire Line
	9450 3350 10050 3350
Wire Wire Line
	8350 3350 8350 3550
Wire Wire Line
	8950 3350 8350 3350
Wire Wire Line
	7950 3350 7950 3550
Wire Wire Line
	7350 3350 7950 3350
Wire Wire Line
	3250 4350 3250 5200
Wire Wire Line
	9800 4600 9550 4600
Wire Wire Line
	8800 4600 9050 4600
Wire Wire Line
	7800 4600 7550 4600
Wire Wire Line
	6800 4600 7050 4600
Wire Bus Line
	6250 4150 6250 4600
Wire Wire Line
	5750 4700 6150 4700
Wire Wire Line
	5750 4600 6150 4600
Wire Wire Line
	5750 4500 6150 4500
Wire Wire Line
	5750 4400 6150 4400
Wire Wire Line
	2250 5050 2600 5050
Wire Wire Line
	2250 4950 2600 4950
Wire Wire Line
	2250 4850 2600 4850
Wire Wire Line
	2250 4750 2600 4750
Wire Wire Line
	2250 4650 2600 4650
Wire Wire Line
	2250 4550 2600 4550
Wire Wire Line
	2250 4450 2600 4450
Wire Wire Line
	2250 4350 2600 4350
Wire Wire Line
	9050 2300 9050 2150
Wire Wire Line
	9400 2300 9550 2300
Wire Wire Line
	9050 2150 9550 2150
Wire Wire Line
	3900 3150 4250 3150
Wire Wire Line
	3400 3150 3050 3150
Wire Bus Line
	2800 3200 2650 3200
Wire Bus Line
	2800 3200 2800 3450
Wire Wire Line
	2550 2350 2200 2350
Wire Wire Line
	2200 2450 2550 2450
Wire Wire Line
	2550 2550 2200 2550
Wire Wire Line
	2200 2650 2550 2650
Wire Bus Line
	2100 2100 2250 2100
Wire Bus Line
	2100 2100 2100 2550
Wire Wire Line
	2250 3550 2700 3550
Wire Wire Line
	2250 3450 2700 3450
Wire Wire Line
	4850 2000 4250 2000
Wire Wire Line
	4150 2100 4150 2550
Wire Wire Line
	4150 2100 4850 2100
NoConn ~ 4850 2500
$Comp
L CONN_02X04 P1
U 1 1 562042BF
P 5250 3350
F 0 "P1" H 5250 3600 50  0000 C CNN
F 1 "PWM0_PWM1_UART0" H 5250 3100 50  0000 C CNN
F 2 "Pin_Headers:Pin_Header_Straight_2x04" H 5250 2150 60  0001 C CNN
F 3 "" H 5250 2150 60  0000 C CNN
	1    5250 3350
	1    0    0    -1  
$EndComp
Wire Wire Line
	5750 3500 5500 3500
Wire Wire Line
	5750 3200 5750 3550
Wire Wire Line
	5500 3400 5750 3400
Connection ~ 5750 3500
Wire Wire Line
	5500 3300 5750 3300
Connection ~ 5750 3400
Wire Wire Line
	5500 3200 5750 3200
Connection ~ 5750 3300
Text GLabel 5350 2400 2    60   Input ~ 0
ANALOG_NEG
Text GLabel 5350 2300 2    60   Input ~ 0
ANALOG_POS
Text Label 5950 2000 2    60   ~ 0
AIN0.1
$Comp
L GND #PWR027
U 1 1 56205735
P 6050 2550
F 0 "#PWR027" H 6050 2300 50  0001 C CNN
F 1 "GND" H 6050 2400 50  0000 C CNN
F 2 "" H 6050 2550 60  0000 C CNN
F 3 "" H 6050 2550 60  0000 C CNN
	1    6050 2550
	-1   0    0    -1  
$EndComp
Wire Wire Line
	5350 2000 5950 2000
Wire Wire Line
	6050 2100 6050 2550
Wire Wire Line
	6050 2100 5350 2100
NoConn ~ 5350 2500
Text GLabel 7200 2400 0    60   Input ~ 0
ANALOG_NEG
Text GLabel 7200 2300 0    60   Input ~ 0
ANALOG_POS
Text Label 6600 2000 0    60   ~ 0
AIN0.2
$Comp
L GND #PWR028
U 1 1 56205A2D
P 6500 2550
F 0 "#PWR028" H 6500 2300 50  0001 C CNN
F 1 "GND" H 6500 2400 50  0000 C CNN
F 2 "" H 6500 2550 60  0000 C CNN
F 3 "" H 6500 2550 60  0000 C CNN
	1    6500 2550
	1    0    0    -1  
$EndComp
Wire Wire Line
	7200 2000 6600 2000
Wire Wire Line
	6500 2100 6500 2550
Wire Wire Line
	6500 2100 7200 2100
NoConn ~ 7200 2500
Text GLabel 7700 2400 2    60   Input ~ 0
ANALOG_NEG
Text GLabel 7700 2300 2    60   Input ~ 0
ANALOG_POS
Text Label 8300 2000 2    60   ~ 0
AIN0.3
$Comp
L GND #PWR029
U 1 1 56205A42
P 8400 2550
F 0 "#PWR029" H 8400 2300 50  0001 C CNN
F 1 "GND" H 8400 2400 50  0000 C CNN
F 2 "" H 8400 2550 60  0000 C CNN
F 3 "" H 8400 2550 60  0000 C CNN
	1    8400 2550
	-1   0    0    -1  
$EndComp
Wire Wire Line
	7700 2000 8300 2000
Wire Wire Line
	8400 2100 8400 2550
Wire Wire Line
	8400 2100 7700 2100
NoConn ~ 7700 2500
Wire Wire Line
	3550 2100 3650 2100
Wire Wire Line
	3650 2100 3650 2250
Text GLabel 4850 2200 0    60   Input ~ 0
VREF_EXT
Text GLabel 5350 2200 2    60   Input ~ 0
VREF_EXT
Text GLabel 7200 2200 0    60   Input ~ 0
VREF_EXT
Text GLabel 7700 2200 2    60   Input ~ 0
VREF_EXT
Wire Notes Line
	2950 2800 2950 1800
Wire Notes Line
	3900 1800 3900 2800
Wire Notes Line
	8900 1800 8900 2800
Wire Notes Line
	10250 1800 10250 2800
Wire Notes Line
	2000 1800 10250 1800
Wire Notes Line
	2000 2800 2000 1800
Wire Notes Line
	10250 2800 2000 2800
$Comp
L CONN_02X04 P7
U 1 1 5620C326
P 3650 3300
F 0 "P7" H 3650 3550 50  0000 C CNN
F 1 "AOUT0" H 3650 3050 50  0000 C CNN
F 2 "Pin_Headers:Pin_Header_Straight_2x04" H 3650 2100 60  0001 C CNN
F 3 "" H 3650 2100 60  0000 C CNN
	1    3650 3300
	1    0    0    -1  
$EndComp
Wire Wire Line
	3150 3250 3150 3550
Wire Wire Line
	3150 3250 3400 3250
Wire Wire Line
	3400 3350 3150 3350
Connection ~ 3150 3350
Wire Wire Line
	3400 3450 3150 3450
Connection ~ 3150 3450
Wire Wire Line
	4050 3250 4050 3550
Wire Wire Line
	4050 3250 3900 3250
Wire Wire Line
	3900 3350 4050 3350
Connection ~ 4050 3350
Wire Wire Line
	3900 3450 4050 3450
Connection ~ 4050 3450
Wire Notes Line
	2000 2950 2000 3800
Wire Notes Line
	2000 3800 4300 3800
Wire Notes Line
	4300 3800 4300 2950
Wire Notes Line
	4300 2950 2000 2950
Wire Notes Line
	2900 2950 2900 3800
$Comp
L CONN_02X06 P4
U 1 1 5621019F
P 5100 2250
F 0 "P4" H 5100 2600 50  0000 C CNN
F 1 "AIN0.0_AIN0.1" H 5100 1900 50  0000 C CNN
F 2 "Pin_Headers:Pin_Header_Straight_2x06" H 5100 1050 60  0001 C CNN
F 3 "" H 5100 1050 60  0000 C CNN
	1    5100 2250
	1    0    0    -1  
$EndComp
$Comp
L CONN_02X06 P8
U 1 1 56210EBD
P 7450 2250
F 0 "P8" H 7450 2600 50  0000 C CNN
F 1 "AIN0.2_AIN0.3" H 7450 1900 50  0000 C CNN
F 2 "Pin_Headers:Pin_Header_Straight_2x06" H 7450 1050 60  0001 C CNN
F 3 "" H 7450 1050 60  0000 C CNN
	1    7450 2250
	1    0    0    -1  
$EndComp
Wire Notes Line
	6250 2800 6250 1800
$Comp
L CONN_02X06 P6
U 1 1 56211E12
P 7300 4350
F 0 "P6" H 7300 4700 50  0000 C CNN
F 1 "SPI0.0_SPI0.1" H 7300 4000 50  0000 C CNN
F 2 "Pin_Headers:Pin_Header_Straight_2x06" H 7300 3150 60  0001 C CNN
F 3 "" H 7300 3150 60  0000 C CNN
	1    7300 4350
	1    0    0    -1  
$EndComp
$Comp
L CONN_02X06 P10
U 1 1 56212322
P 9300 4350
F 0 "P10" H 9300 4700 50  0000 C CNN
F 1 "AIN0.0_AIN0.1" H 9300 4000 50  0000 C CNN
F 2 "Pin_Headers:Pin_Header_Straight_2x06" H 9300 3150 60  0001 C CNN
F 3 "" H 9300 3150 60  0000 C CNN
	1    9300 4350
	1    0    0    -1  
$EndComp
$Comp
L CONN_02X04 P5
U 1 1 56212B03
P 7100 3300
F 0 "P5" H 7100 3550 50  0000 C CNN
F 1 "AOUT0" H 7100 3050 50  0000 C CNN
F 2 "Pin_Headers:Pin_Header_Straight_2x04" H 7100 2100 60  0001 C CNN
F 3 "" H 7100 2100 60  0000 C CNN
	1    7100 3300
	1    0    0    -1  
$EndComp
$Comp
L CONN_02X04 P9
U 1 1 562136BD
P 9200 3300
F 0 "P9" H 9200 3550 50  0000 C CNN
F 1 "AOUT0" H 9200 3050 50  0000 C CNN
F 2 "Pin_Headers:Pin_Header_Straight_2x04" H 9200 2100 60  0001 C CNN
F 3 "" H 9200 2100 60  0000 C CNN
	1    9200 3300
	1    0    0    -1  
$EndComp
Wire Notes Line
	8200 3800 8200 2950
Wire Notes Line
	8300 4850 8300 3950
Wire Notes Line
	6350 3950 6350 4850
Wire Notes Line
	10250 4850 10250 3950
Wire Notes Line
	5500 4850 10250 4850
Wire Notes Line
	10250 3950 5500 3950
Wire Wire Line
	3100 4350 3250 4350
Wire Wire Line
	3250 5050 3100 5050
Connection ~ 3250 5050
Wire Wire Line
	3100 4950 3250 4950
Connection ~ 3250 4950
Wire Wire Line
	3100 4850 3250 4850
Connection ~ 3250 4850
Wire Wire Line
	3100 4750 3250 4750
Connection ~ 3250 4750
Wire Wire Line
	3100 4650 3250 4650
Connection ~ 3250 4650
Wire Wire Line
	3100 4550 3250 4550
Connection ~ 3250 4550
Wire Wire Line
	3100 4450 3250 4450
Connection ~ 3250 4450
Wire Bus Line
	2500 4100 2150 4100
Wire Bus Line
	2150 4100 2150 4950
Wire Notes Line
	2050 5450 3400 5450
Wire Notes Line
	3400 5450 3400 3950
Wire Notes Line
	2050 5450 2050 3950
Wire Notes Line
	2050 3950 3400 3950
Wire Notes Line
	4450 2950 5900 2950
Wire Notes Line
	5900 2950 5900 3800
Wire Notes Line
	5900 3800 4450 3800
Wire Notes Line
	4450 3800 4450 2950
$EndSCHEMATC
