G04 #@! TF.FileFunction,Soldermask,Bot*
%FSLAX46Y46*%
G04 Gerber Fmt 4.6, Leading zero omitted, Abs format (unit mm)*
G04 Created by KiCad (PCBNEW 4.0.5) date Sat Jan 14 21:17:21 2017*
%MOMM*%
%LPD*%
G01*
G04 APERTURE LIST*
%ADD10C,0.150000*%
%ADD11R,1.727200X1.727200*%
%ADD12O,1.727200X1.727200*%
%ADD13R,1.200000X0.750000*%
%ADD14C,3.500000*%
G04 APERTURE END LIST*
D10*
D11*
X96647300Y-60149580D03*
D12*
X94107300Y-60149580D03*
X96647300Y-62689580D03*
X94107300Y-62689580D03*
X96647300Y-65229580D03*
X94107300Y-65229580D03*
X96647300Y-67769580D03*
X94107300Y-67769580D03*
X96647300Y-70309580D03*
X94107300Y-70309580D03*
X96647300Y-72849580D03*
X94107300Y-72849580D03*
X96647300Y-75389580D03*
X94107300Y-75389580D03*
X96647300Y-77929580D03*
X94107300Y-77929580D03*
X96647300Y-80469580D03*
X94107300Y-80469580D03*
X96647300Y-83009580D03*
X94107300Y-83009580D03*
X96647300Y-85549580D03*
X94107300Y-85549580D03*
X96647300Y-88089580D03*
X94107300Y-88089580D03*
X96647300Y-90629580D03*
X94107300Y-90629580D03*
D11*
X101071980Y-59613640D03*
D12*
X103611980Y-59613640D03*
X101071980Y-62153640D03*
X103611980Y-62153640D03*
X101071980Y-64693640D03*
X103611980Y-64693640D03*
X101071980Y-67233640D03*
X103611980Y-67233640D03*
X101071980Y-69773640D03*
X103611980Y-69773640D03*
X101071980Y-72313640D03*
X103611980Y-72313640D03*
D11*
X148072140Y-59611100D03*
D12*
X150612140Y-59611100D03*
X148072140Y-62151100D03*
X150612140Y-62151100D03*
X148072140Y-64691100D03*
X150612140Y-64691100D03*
X148072140Y-67231100D03*
X150612140Y-67231100D03*
D11*
X116317040Y-97673520D03*
D12*
X116317040Y-95133520D03*
X118857040Y-97673520D03*
X118857040Y-95133520D03*
X121397040Y-97673520D03*
X121397040Y-95133520D03*
X123937040Y-97673520D03*
X123937040Y-95133520D03*
X126477040Y-97673520D03*
X126477040Y-95133520D03*
X129017040Y-97673520D03*
X129017040Y-95133520D03*
X131557040Y-97673520D03*
X131557040Y-95133520D03*
X134097040Y-97673520D03*
X134097040Y-95133520D03*
D13*
X140533460Y-90715940D03*
X138633460Y-90715940D03*
D11*
X131003340Y-59608560D03*
D12*
X133543340Y-59608560D03*
X131003340Y-62148560D03*
X133543340Y-62148560D03*
X131003340Y-64688560D03*
X133543340Y-64688560D03*
X131003340Y-67228560D03*
X133543340Y-67228560D03*
D13*
X140533460Y-85633400D03*
X138633460Y-85633400D03*
X140533460Y-88173400D03*
X138633460Y-88173400D03*
D11*
X106151980Y-80561020D03*
D12*
X108691980Y-80561020D03*
X106151980Y-83101020D03*
X108691980Y-83101020D03*
X106151980Y-85641020D03*
X108691980Y-85641020D03*
X106151980Y-88181020D03*
X108691980Y-88181020D03*
D11*
X101071980Y-80561020D03*
D12*
X103611980Y-80561020D03*
X101071980Y-83101020D03*
X103611980Y-83101020D03*
X101071980Y-85641020D03*
X103611980Y-85641020D03*
X101071980Y-88181020D03*
X103611980Y-88181020D03*
D11*
X142993480Y-80553400D03*
D12*
X145533480Y-80553400D03*
X142993480Y-83093400D03*
X145533480Y-83093400D03*
X142993480Y-85633400D03*
X145533480Y-85633400D03*
X142993480Y-88173400D03*
X145533480Y-88173400D03*
X142993480Y-90713400D03*
X145533480Y-90713400D03*
X142993480Y-93253400D03*
X145533480Y-93253400D03*
D11*
X148072140Y-80553400D03*
D12*
X150612140Y-80553400D03*
X148072140Y-83093400D03*
X150612140Y-83093400D03*
X148072140Y-85633400D03*
X150612140Y-85633400D03*
X148072140Y-88173400D03*
X150612140Y-88173400D03*
X148072140Y-90713400D03*
X150612140Y-90713400D03*
X148072140Y-93253400D03*
X150612140Y-93253400D03*
D11*
X106151980Y-59613640D03*
D12*
X108691980Y-59613640D03*
X106151980Y-62153640D03*
X108691980Y-62153640D03*
X106151980Y-64693640D03*
X108691980Y-64693640D03*
X106151980Y-67233640D03*
X108691980Y-67233640D03*
X106151980Y-69773640D03*
X108691980Y-69773640D03*
X106151980Y-72313640D03*
X108691980Y-72313640D03*
D11*
X157653020Y-60159740D03*
D12*
X155113020Y-60159740D03*
X157653020Y-62699740D03*
X155113020Y-62699740D03*
X157653020Y-65239740D03*
X155113020Y-65239740D03*
X157653020Y-67779740D03*
X155113020Y-67779740D03*
X157653020Y-70319740D03*
X155113020Y-70319740D03*
X157653020Y-72859740D03*
X155113020Y-72859740D03*
X157653020Y-75399740D03*
X155113020Y-75399740D03*
X157653020Y-77939740D03*
X155113020Y-77939740D03*
X157653020Y-80479740D03*
X155113020Y-80479740D03*
X157653020Y-83019740D03*
X155113020Y-83019740D03*
X157653020Y-85559740D03*
X155113020Y-85559740D03*
X157653020Y-88099740D03*
X155113020Y-88099740D03*
X157653020Y-90639740D03*
X155113020Y-90639740D03*
D14*
X94879680Y-54399420D03*
X156879680Y-54399420D03*
X156879680Y-96399420D03*
X94879680Y-96399420D03*
M02*
